Exploring the BRFSS data
…
We can summarize that from the active persons group there are more people that smoke or drinks. Meanwhile from the non-active persons there are more people that does not smoke or drink

Research quesion 2: Which states have less % of retired people that do not have medical insurance?

We are going to first filter for retired persons that has medical insurance information.

retired <- brfss2013 %>% 
  filter(employ1=='Retired',!is.na(hlthpln1)) %>%
  group_by(X_state,hlthpln1)%>% 
  summarize(n=n())

print(retired)

## Source: local data frame [106 x 3]
## Groups: X_state [?]
## 
##       X_state hlthpln1     n
##        <fctr>   <fctr> <int>
## 1     Alabama      Yes  2147
## 2     Alabama       No    31
## 3      Alaska      Yes   762
## 4      Alaska       No    31
## 5     Arizona      Yes  1437
## 6     Arizona       No    35
## 7    Arkansas      Yes  1676
## 8    Arkansas       No    58
## 9  California      Yes  2641
## 10 California       No    63
## # ... with 96 more rows
…
